module gitlab.com/alxrem/tgbot

go 1.23

require (
	github.com/go-telegram-bot-api/telegram-bot-api v4.6.4+incompatible
	github.com/onsi/ginkgo v1.16.5
	github.com/onsi/gomega v1.35.1
	golang.org/x/time v0.8.0
)

require (
	github.com/fsnotify/fsnotify v1.4.9 // indirect
	github.com/google/go-cmp v0.6.0 // indirect
	github.com/nxadm/tail v1.4.8 // indirect
	github.com/technoweenie/multipartstreamer v1.0.1 // indirect
	golang.org/x/net v0.30.0 // indirect
	golang.org/x/sys v0.26.0 // indirect
	golang.org/x/text v0.19.0 // indirect
	gopkg.in/tomb.v1 v1.0.0-20141024135613-dd632973f1e7 // indirect
	gopkg.in/yaml.v3 v3.0.1 // indirect
)
